{
  "trader": {
    "email": "trader@mail.local",
    "password": "nouw1Thi0kixahka",
    "type": "special"
  },
  "admin": {
    "email": "admin@mail.local",
    "password": "aiFuuP6oudooVo3nai7o",
    "admin": true
  },
  "cron": {
    "email": "cron@mail.local",
    "type": "special"
  },
  "demo": {
    "email": "demo@mail.local",
    "password": "demo",
    "parent": 1
  },
  "november": {
    "email": "november@mail.local",
    "password": "aiNik0caeThahkuil7aG",
    "admin": true
  },
  "december": {
    "email": "december@mail.local",
    "password": "coleighah1shahMee2va",
    "admin": true
  },
  "january": {
    "email": "january@mail.local",
    "password": "Tiwegho9ooW7Ohoolaoc",
    "admin": true
  },
  "april": {
    "email": "april@mail.local",
    "password": "eingepi2Aivah8me7cuNueta",
    "admin": true
  },
  "bitcoin": {
    "email": "bitcoin@mail.local",
    "type": "special"
  },
  "ethereum": {
    "email": "ethereum@mail.local",
    "type": "special"
  },
  "telegram": {
    "email": "telegram@mail.local",
    "type": "special"
  },
  "perfect": {
    "email": "perfect@mail.local",
    "type": "special"
  },
  "payeer": {
    "email": "payeer@mail.local",
    "type": "special"
  },
  "advcash": {
    "email": "advcash@mail.local",
    "type": "special"
  },
  "blockio": {
    "email": "blockio@mail.local",
    "type": "special"
  },
  "ico_holding": {
    "email": "ico-holding@mail.local",
    "password": "Too2Ohnohyahv1Ieph6t",
    "parent": 1,
    "type": "blocked"
  }
}
